[api-updater (non-obsolete-error-filter)] 2021-12-08 9:02:03 AM : Starting G:/Unity Editors/Unity/Editor/Data/Tools/ScriptUpdater/APIUpdater.NonObsoleteApiUpdaterDetector.exe
[api-updater (non-obsolete-error-filter)] 
----------------------------------
jit/startup time      : 989.1053ms
moved types parse time: 75ms
candidates parse time : 9ms
C# parse time         : 635ms
candidates check time : 25ms
console write time    : 0ms

