%YAML 1.1
%TAG !u! tag:unity3d.com,2011:
--- !u!74 &7400000
AnimationClip:
  m_ObjectHideFlags: 0
  m_CorrespondingSourceObject: {fileID: 0}
  m_PrefabInstance: {fileID: 0}
  m_PrefabAsset: {fileID: 0}
  m_Name: Player_WalkLeft
  serializedVersion: 6
  m_Legacy: 0
  m_Compressed: 0
  m_UseHighQualityCurve: 1
  m_RotationCurves: []
  m_CompressedRotationCurves: []
  m_EulerCurves: []
  m_PositionCurves: []
  m_ScaleCurves: []
  m_FloatCurves: []
  m_PPtrCurves:
  - curve:
    - time: 0
      value: {fileID: -7829912232310476302, guid: 637347167c66add44bfac2e49c52eef9, type: 3}
    - time: 0.05
      value: {fileID: 7892536819879606182, guid: 637347167c66add44bfac2e49c52eef9, type: 3}
    - time: 0.13333334
      value: {fileID: -6792011124720435149, guid: 637347167c66add44bfac2e49c52eef9, type: 3}
    - time: 0.18333334
      value: {fileID: 5695755681658153911, guid: 637347167c66add44bfac2e49c52eef9, type: 3}
    - time: 0.25
      value: {fileID: -8431222954933314167, guid: 637347167c66add44bfac2e49c52eef9, type: 3}
    - time: 0.3
      value: {fileID: -1340846448467671409, guid: 637347167c66add44bfac2e49c52eef9, type: 3}
    - time: 0.36666667
      value: {fileID: -7983863436109491612, guid: 637347167c66add44bfac2e49c52eef9, type: 3}
    - time: 0.43333334
      value: {fileID: 6398832316748969300, guid: 637347167c66add44bfac2e49c52eef9, type: 3}
    - time: 0.5
      value: {fileID: -6799059003781248748, guid: 637347167c66add44bfac2e49c52eef9, type: 3}
    - time: 0.55
      value: {fileID: 7892536819879606182, guid: 637347167c66add44bfac2e49c52eef9, type: 3}
    - time: 0.6
      value: {fileID: -6792011124720435149, guid: 637347167c66add44bfac2e49c52eef9, type: 3}
    - time: 0.68333334
      value: {fileID: 5695755681658153911, guid: 637347167c66add44bfac2e49c52eef9, type: 3}
    - time: 0.73333335
      value: {fileID: -8431222954933314167, guid: 637347167c66add44bfac2e49c52eef9, type: 3}
    - time: 0.81666666
      value: {fileID: -1340846448467671409, guid: 637347167c66add44bfac2e49c52eef9, type: 3}
    - time: 0.8666667
      value: {fileID: -7983863436109491612, guid: 637347167c66add44bfac2e49c52eef9, type: 3}
    - time: 0.95
      value: {fileID: 6398832316748969300, guid: 637347167c66add44bfac2e49c52eef9, type: 3}
    - time: 1
      value: {fileID: -6799059003781248748, guid: 637347167c66add44bfac2e49c52eef9, type: 3}
    attribute: m_Sprite
    path: 
    classID: 212
    script: {fileID: 0}
  m_SampleRate: 60
  m_WrapMode: 0
  m_Bounds:
    m_Center: {x: 0, y: 0, z: 0}
    m_Extent: {x: 0, y: 0, z: 0}
  m_ClipBindingConstant:
    genericBindings:
    - serializedVersion: 2
      path: 0
      attribute: 0
      script: {fileID: 0}
      typeID: 212
      customType: 23
      isPPtrCurve: 1
    pptrCurveMapping:
    - {fileID: -7829912232310476302, guid: 637347167c66add44bfac2e49c52eef9, type: 3}
    - {fileID: 7892536819879606182, guid: 637347167c66add44bfac2e49c52eef9, type: 3}
    - {fileID: -6792011124720435149, guid: 637347167c66add44bfac2e49c52eef9, type: 3}
    - {fileID: 5695755681658153911, guid: 637347167c66add44bfac2e49c52eef9, type: 3}
    - {fileID: -8431222954933314167, guid: 637347167c66add44bfac2e49c52eef9, type: 3}
    - {fileID: -1340846448467671409, guid: 637347167c66add44bfac2e49c52eef9, type: 3}
    - {fileID: -7983863436109491612, guid: 637347167c66add44bfac2e49c52eef9, type: 3}
    - {fileID: 6398832316748969300, guid: 637347167c66add44bfac2e49c52eef9, type: 3}
    - {fileID: -6799059003781248748, guid: 637347167c66add44bfac2e49c52eef9, type: 3}
    - {fileID: 7892536819879606182, guid: 637347167c66add44bfac2e49c52eef9, type: 3}
    - {fileID: -6792011124720435149, guid: 637347167c66add44bfac2e49c52eef9, type: 3}
    - {fileID: 5695755681658153911, guid: 637347167c66add44bfac2e49c52eef9, type: 3}
    - {fileID: -8431222954933314167, guid: 637347167c66add44bfac2e49c52eef9, type: 3}
    - {fileID: -1340846448467671409, guid: 637347167c66add44bfac2e49c52eef9, type: 3}
    - {fileID: -7983863436109491612, guid: 637347167c66add44bfac2e49c52eef9, type: 3}
    - {fileID: 6398832316748969300, guid: 637347167c66add44bfac2e49c52eef9, type: 3}
    - {fileID: -6799059003781248748, guid: 637347167c66add44bfac2e49c52eef9, type: 3}
  m_AnimationClipSettings:
    serializedVersion: 2
    m_AdditiveReferencePoseClip: {fileID: 0}
    m_AdditiveReferencePoseTime: 0
    m_StartTime: 0
    m_StopTime: 1.0166667
    m_OrientationOffsetY: 0
    m_Level: 0
    m_CycleOffset: 0
    m_HasAdditiveReferencePose: 0
    m_LoopTime: 1
    m_LoopBlend: 0
    m_LoopBlendOrientation: 0
    m_LoopBlendPositionY: 0
    m_LoopBlendPositionXZ: 0
    m_KeepOriginalOrientation: 0
    m_KeepOriginalPositionY: 1
    m_KeepOriginalPositionXZ: 0
    m_HeightFromFeet: 0
    m_Mirror: 0
  m_EditorCurves: []
  m_EulerEditorCurves: []
  m_HasGenericRootTransform: 0
  m_HasMotionFloatCurves: 0
  m_Events: []
